{
  "project_info": {
    "project_number": "1052184951616",
    "firebase_url": "https://libraryscheduler-a4e0f.firebaseio.com",
    "project_id": "libraryscheduler-a4e0f",
    "storage_bucket": "libraryscheduler-a4e0f.appspot.com"
  },
  "client": [
    {
      "client_info": {
        "mobilesdk_app_id": "1:1052184951616:android:a89d6fc0d4227490",
        "android_client_info": {
          "package_name": "com.example.s528768.project"
        }
      },
      "oauth_client": [
        {
          "client_id": "1052184951616-f6jmqrag4s65o4ch81s1irr6kpek9gtq.apps.googleusercontent.com",
          "client_type": 1,
          "android_info": {
            "package_name": "com.example.s528768.project",
            "certificate_hash": "5f7d68b71c8a77a569b0f67286fdc8b893528221"
          }
        },
        {
          "client_id": "1052184951616-8pgqv9a5go2aot1idvogc7vak4c7uevv.apps.googleusercontent.com",
          "client_type": 3
        }
      ],
      "api_key": [
        {
          "current_key": "AIzaSyDrSzIlVIpaXqH6N70JMWJLhezpq7eLXD4"
        }
      ],
      "services": {
        "analytics_service": {
          "status": 1
        },
        "appinvite_service": {
          "status": 2,
          "other_platform_oauth_client": [
            {
              "client_id": "1052184951616-8pgqv9a5go2aot1idvogc7vak4c7uevv.apps.googleusercontent.com",
              "client_type": 3
            }
          ]
        },
        "ads_service": {
          "status": 2
        }
      }
    }
  ],
  "configuration_version": "1"
}